%YAML 1.1
%TAG !u! tag:unity3d.com,2011:
--- !u!1045 &1
EditorBuildSettings:
  m_ObjectHideFlags: 0
  serializedVersion: 2
  m_Scenes:
  - enabled: 1
    path: Assets/Examples/AsyncExample/HeavyScene.unity
    guid: 95a9f545fdd2e45e180c6af3e2d3aeeb
